## Interface: 50400
## Title: |cff1784d1ElvUI |rWatchFrameHider
## Version: 1.1
## Author: Sortokk, Azilroka
## OptionalDeps: ElvUI, Enhanced_Config

libs\load_libs.xml
locales\load_locales.xml
ElvUI_WatchFrameHider.lua